InsightNet EpiData Workshop 2024 – appendix-tidyverse
…
Creating tibbles

Tibbles: Modern data frames with enhanced features.

Rows represent observations (or cases).

Columns represent variables (or features).

You can create tibbles manually using the tibble() function.

tibble(x = letters, y = 1:26)

# A tibble: 26 × 2
   x         y
   <chr> <int>
 1 a         1
 2 b         2
 3 c         3
 4 d         4
 5 e         5
 6 f         6
 7 g         7
 8 h         8
 9 i         9
10 j        10
# ℹ 16 more rows

Selecting columns with select()

The select() function is used to pick specific columns from your dataset.

select(cases_df, geo_value, time_value)  # Select the 'geo_value' and 'time_value' columns

# A tibble: 93 × 2
   geo_value time_value
   <chr>     <date>    
 1 ca        2022-03-01
 2 nc        2022-03-01
 3 ny        2022-03-01
 4 ca        2022-03-02
 5 nc        2022-03-02
 6 ny        2022-03-02
 7 ca        2022-03-03
 8 nc        2022-03-03
 9 ny        2022-03-03
10 ca        2022-03-04
# ℹ 83 more rows

Selecting columns with select()

You can exclude columns by prefixing the column names with a minus sign -.

select(cases_df, -raw_cases)  # Exclude the 'raw_cases' column from the dataset

# A tibble: 93 × 2
   geo_value time_value
   <chr>     <date>    
 1 ca        2022-03-01
 2 nc        2022-03-01
 3 ny        2022-03-01
 4 ca        2022-03-02
 5 nc        2022-03-02
 6 ny        2022-03-02
 7 ca        2022-03-03
 8 nc        2022-03-03
 9 ny        2022-03-03
10 ca        2022-03-04
# ℹ 83 more rows
…
 Artwork by @allison_horst

Subsetting rows with filter()

The filter() function allows you to subset rows that meet specific conditions.

Conditions regard column values, such as filtering for only NC or cases higher than some threshold.

This enables you to narrow down your dataset to focus on relevant data.

filter(cases_df, geo_value == "nc", raw_cases > 500)  # Filter for NC with raw daily cases > 500

# A tibble: 22 × 3
   geo_value time_value raw_cases
   <chr>     <date>         <dbl>
 1 nc        2022-03-01      1231
 2 nc        2022-03-02      2243
 3 nc        2022-03-03      2377
 4 nc        2022-03-04      2646
 5 nc        2022-03-07      4230
 6 nc        2022-03-08       894
 7 nc        2022-03-09      1833
 8 nc        2022-03-10      1783
 9 nc        2022-03-11      1849
10 nc        2022-03-14      3130
# ℹ 12 more rows
…
