EpiData Workshop 2025 – Forecasting and Advanced Topics
…
Predict with fitted ARX (split-sample)

arx_forecaster fits a model to the training set, and outputs only one prediction (for time \(t_0+h\)).

To get predictions for the test set:

predict(epi_arx$epi_workflow, test)

An `epi_df` object, 707 x 6 with metadata:
* geo_type  = state
* time_type = day
* as_of     = 2025-04-13 07:46:06.137479

# A tibble: 707 × 6
   geo_value time_value .pred .pred_distn forecast_date target_date
   <chr>     <date>     <dbl>   <qtls(3)> <date>        <date>     
 1 ca        2021-04-02 0.213     [0.213] 2021-04-01    2021-04-29 
 2 ca        2021-04-03 0.202     [0.202] 2021-04-01    2021-04-29 
 3 ca        2021-04-04 0.197     [0.197] 2021-04-01    2021-04-29 
 4 ca        2021-04-05 0.201     [0.201] 2021-04-01    2021-04-29 
 5 ca        2021-04-06 0.199     [0.199] 2021-04-01    2021-04-29 
 6 ca        2021-04-07 0.195     [0.195] 2021-04-01    2021-04-29 
 7 ca        2021-04-08 0.195     [0.195] 2021-04-01    2021-04-29 
 8 ca        2021-04-09 0.196     [0.196] 2021-04-01    2021-04-29 
 9 ca        2021-04-10 0.208     [0.208] 2021-04-01    2021-04-29 
10 ca        2021-04-11 0.213     [0.213] 2021-04-01    2021-04-29 
# ℹ 697 more rows
…
(That’s because we lagged \(x\) before applying the window.)

So we were “cheating” by saying that the trailing window had length \(w=120\), as its actual size was \(120+h\)!

Note (all past)

The method fitting on all past data up to the forecasting date can be implemented by setting:

.before = Inf in epix_slide().

Predict with ARX (re-fitting on trailing window)

pred_arx 

# A tibble: 98 × 8
   version    geo_value  .pred forecast_date target_date  `0.1`  `0.5` `0.9`
 * <date>     <chr>      <dbl> <date>        <date>       <dbl>  <dbl> <dbl>
 1 2021-04-01 ca        0.396  2021-03-31    2021-04-28  0.192  0.396  0.599
 2 2021-04-08 ca        0.395  2021-04-07    2021-05-05  0.197  0.395  0.594
 3 2021-04-15 ca        0.403  2021-04-14    2021-05-12  0.211  0.403  0.595
 4 2021-04-22 ca        0.312  2021-04-21    2021-05-19  0.142  0.312  0.482
 5 2021-04-29 ca        0.261  2021-04-28    2021-05-26  0.0879 0.261  0.433
 6 2021-05-06 ca        0.209  2021-05-05    2021-06-02  0.0238 0.209  0.394
 7 2021-05-13 ca        0.158  2021-05-12    2021-06-09  0      0.158  0.345
 8 2021-05-20 ca        0.118  2021-05-19    2021-06-16  0      0.118  0.296
 9 2021-05-27 ca        0.0775 2021-05-26    2021-06-23  0      0.0775 0.239
10 2021-06-03 ca        0.0552 2021-06-02    2021-06-30  0      0.0552 0.137
# ℹ 88 more rows
…
