EpiData Workshop 2025 – Data Cleaning, Versioning, and Nowcasting
…
epi_df: Snapshot of a dataset

can_edf <- can_cases_deaths |>
  rename(geo_value = region) |>
  as_epi_df(as_of = "2024-04-13", other_keys = "hr")
can_edf

An `epi_df` object, 150,951 x 5 with metadata:
* geo_type  = nation
* time_type = day
* other_keys = hr
* as_of     = 2024-04-13

# A tibble: 150,951 × 5
   geo_value hr       time_value cases deaths
 * <chr>     <chr>    <date>     <dbl>  <dbl>
 1 AB        South    2020-03-05     0      0
 2 AB        Calgary  2020-03-05     1      0
 3 AB        Central  2020-03-05     0      0
 4 AB        Edmonton 2020-03-05     0      0
 5 AB        North    2020-03-05     0      0
 6 AB        Other    2020-03-05     0      0
 7 AB        South    2020-03-06     0      0
 8 AB        Calgary  2020-03-06     0      0
 9 AB        Central  2020-03-06     0      0
10 AB        Edmonton 2020-03-06     0      0
# ℹ 150,941 more rows
…
Explicit missingness means that there’s an NA

Implicit missingness means that a combination of time_value and geo_value is not in the data.

can_edf <- can_edf |>
  complete(time_value = full_seq(time_value, period = 1), fill = list(cases = 0, deaths = 0)) 
can_edf

An `epi_df` object, 150,951 x 5 with metadata:
* geo_type  = nation
* time_type = day
* other_keys = hr
* as_of     = 2024-04-13

# A tibble: 150,951 × 5
   time_value geo_value hr                               cases deaths
   <date>     <chr>     <chr>                            <dbl>  <dbl>
 1 2020-01-15 ON        Algoma                               0      0
 2 2020-01-15 ON        Brant                                0      0
 3 2020-01-15 ON        Durham                               0      0
 4 2020-01-15 ON        Grey Bruce                           0      0
 5 2020-01-15 ON        Haldimand-Norfolk                    0      0
 6 2020-01-15 ON        Haliburton, Kawartha, Pine Ridge     0      0
 7 2020-01-15 ON        Halton                               0      0
 8 2020-01-15 ON        Hamilton                             0      0
 9 2020-01-15 ON        Hastings and Prince Edward           0      0
10 2020-01-15 ON        Chatham-Kent                         0      0
# ℹ 150,941 more rows

Warm up: aggregating

can_prov <- can_edf |>
  sum_groups_epi_df(c(cases, deaths), group_cols = "geo_value")
can_prov

An `epi_df` object, 16,862 x 4 with metadata:
* geo_type  = nation
* time_type = day
* as_of     = 2024-04-13

# A tibble: 16,862 × 4
   geo_value time_value cases deaths
   <chr>     <date>     <dbl>  <dbl>
 1 AB        2020-03-05     1      0
 2 AB        2020-03-06     0      0
 3 AB        2020-03-07     1      0
 4 AB        2020-03-08     1      0
 5 AB        2020-03-09     4      0
 6 AB        2020-03-10     9      0
 7 AB        2020-03-11     7      0
 8 AB        2020-03-12     3      0
 9 AB        2020-03-13     8      0
10 AB        2020-03-14    22      0
# ℹ 16,852 more rows
…
