EpiData Workshop 2025 – Introduction to Panel Data in Epidemiology
…
3 Panel Data

Panel data

Panel data is cross-sectional measurements of subjects over time.

With aggregated data, the subjects are geographic units (e.g. provinces, states).

Time index + one or more locations/keys.

# A tibble: 549 × 3
   time_value geo_value percent_cli
   <date>     <chr>           <dbl>
 1 2020-06-01 ca               2.75
 2 2020-06-02 ca               2.57
 3 2020-06-03 ca               2.48
 4 2020-06-04 ca               2.41
 5 2020-06-05 ca               2.57
 6 2020-06-06 ca               2.63
 7 2020-06-07 ca               2.73
 8 2020-06-08 ca               3.04
 9 2020-06-09 ca               2.97
10 2020-06-10 ca               2.99
# ℹ 539 more rows
…
